\BOOKMARK [1][-]{section.1}{Personal\040Data}{}% 1
\BOOKMARK [1][-]{section.2}{Work\040Experience}{}% 2
\BOOKMARK [1][-]{section.3}{Education}{}% 3
\BOOKMARK [1][-]{section.4}{Scholarships\040and\040Certificates}{}% 4
\BOOKMARK [1][-]{section.5}{Languages}{}% 5
\BOOKMARK [1][-]{section.6}{Computer\040Skills}{}% 6
\BOOKMARK [1][-]{section.7}{Interests\040and\040Activities}{}% 7
