\relax 
\gdef \LT@i {\LT@entry 
    {1}{14.84544pt}\LT@entry 
    {1}{403.41011pt}}
\gdef \LT@ii {\LT@entry 
    {1}{68.9055pt}\LT@entry 
    {1}{241.94997pt}}
\gdef \LT@iii {\LT@entry 
    {1}{68.9055pt}\LT@entry 
    {1}{345.16978pt}}
\gdef \LT@iv {\LT@entry 
    {1}{68.9055pt}\LT@entry 
    {1}{345.16978pt}}
\@writefile{toc}{\contentsline {section}{\numberline {1}Summary}{1}}
\@writefile{toc}{\contentsline {section}{\numberline {2}Education}{1}}
\@writefile{toc}{\contentsline {section}{\numberline {3}Work Experience}{1}}
\gdef \LT@v {\LT@entry 
    {1}{68.9055pt}\LT@entry 
    {1}{345.16978pt}}
\gdef \LT@vi {\LT@entry 
    {1}{68.9055pt}\LT@entry 
    {1}{345.16978pt}}
\gdef \LT@vii {\LT@entry 
    {1}{68.9055pt}\LT@entry 
    {1}{345.16978pt}}
\@writefile{toc}{\contentsline {section}{\numberline {4}Entrepreneurship}{2}}
\@writefile{toc}{\contentsline {section}{\numberline {5}Internship}{2}}
\@writefile{toc}{\contentsline {section}{\numberline {6}Skills}{2}}
